{
    "$schema":"https://json-schema.org/draft/2020-12/schema",
    "id": "https://example.com/add-ad-group.schema.json",
    "title": "CreateNewAzureAD",
    "description": "Specify the new AD group details.",
    "type":"object",
    "properties": {
        "Dscription":{
            "type":"string",
            "description":"Specify the description of the group"
        },
        "DisplayName":{
            "description": "Specify display name of the AD group.",
            "type":"string",
            "maxLength": 32,
            "pattern": "^[a-zA-Z]+( [a-zA-Z]+)*$"
        },
        "MailEnabled": {
            "description": "Indicates whether mail is enabled.",
            "type":"boolean",
            "default": false
        },
        "SecurityEnabled": {
            "description": "Indicates whether the group is security-enabled.",
            "type":"boolean",
            "default": true
        },
        "MailNickName":{
            "description": "Specifies a nickname for mail.",
            "type": "string",
            "maxLength": 20
        }
    },
    "required": ["DisplayName"]
}